{
  "name": "7u83-mcol",
  "version": "0.1.0",
  "author": "7u83",
  "summary": "MCollective installer",
  "license": "GPL",
  "source": "",
  "project_page": null,
  "issues_url": null,
  "dependencies": [
    {
      "name": "puppetlabs-stdlib",
      "version_requirement": ">= 1.0.0"
    },
    {
      "name": "puppetlabs-java_ks",
      "version_requirement": ">= 2.3.0"
    }
  ],
  "data_provider": null
}

